1, UKR9832, KIEV, BAKU, 11/03/2022 08:30, 100
2, UKR9231, KIEV, LONDON, 15/06/2022 12:35, 50
3, UKR1832, KIEV, GLASGOW, 21/05/2022 15:40, 20
4, UKR5832, KIEV, DUBLIN, 23/07/2022 14:20, 150
5, UKR3832, KIEV, NEW-YORK, 25/08/2022 22:40, 75
6, UKR8765, KIEV, LOS-ANGELES, 15/09/2022 19:50, 60
7, UKR8244, KIEV, LVIV, 17/10/2022 18:00, 100
8, UKR3135, KIEV, LYON, 15/11/2022 16:10, 200
9, UKR6742, KIEV, MARSEL, 16/12/2022 17:20, 105
10, UKR9578, KIEV, PARIS, 09/01/2022 19:25, 35
11, UKR1357, KIEV, ISTANBUL, 08/05/2022 20:22, 65
12, UKR9873, KIEV, BARCELONA, 07/04/2022 23:35, 85
13, UKR9821, KIEV, MADRID, 20/03/2022 21:44, 95
14, UKR9321, KIEV, VALENCIA, 19/02/2022 22:45, 25
15, UKR9903, KIEV, ANKARA, 21/01/2022 10:23, 30
16, UKR2135, KIEV, BERLIN, 22/05/2022 11:34, 65
17, UKR0923, KIEV, FRANKFURT, 18/07/2022 09:55, 44
18, UKR6532, KIEV, LISBON, 14/08/2022 06:50, 55
19, UKR3245, KIEV, PORTO, 12/10/2022 04:15, 21
20, UKR8732, KIEV, ROME, 11/11/2022 13:20, 99
21, UKR9621, KIEV, FRANKFURT, 18/07/2022 10:55, 32
22, UKR1324, KIEV, LISBON, 12/08/2022 06:50, 45
23, UKR8472, KIEV, PORTO, 12/10/2022 12:15, 88
24, UKR8372, KIEV, ROME, 11/11/2022 06:20, 83
25, UKR0124, KIEV, ROME, 11/11/2022 06:20, 25

